{"failedCount":0,"prefixedPath":"src\/test\/java\/APITest\/IdBul.feature","packageQualifiedName":"src.test.java.APITest.IdBul","loopIndex":-1,"relativePath":"src\/test\/java\/APITest\/IdBul.feature","scenarioResults":[{"sectionIndex":0,"stepResults":[{"result":{"nanos":52562800,"millis":52.5628,"status":"passed"},"step":{"background":true,"line":3,"prefix":"*","index":0,"text":"def token = \"Bearer BQCU97QoaT31NmdLsKBDDZVqB2RgyhbahA6FH5dLGvMgsYj9XIi4K2_8I3HOJWvAZzsQHmqgoiZNVQsBBeY8U0Kg8jodo_sG1MkTlFHqFKJj5FTOmKi4DgAzNi-4j5d2OL3FXKx08dRUOq7PElN1JssaY47UBn9Zx9PtIPU4xH1TvT8G7RV_qc1mMUBIM6eNu__wlGo9BxqiXmL1YVOrZHx8trR9pHHhBYGA\""}},{"result":{"nanos":10590800,"millis":10.5908,"status":"passed"},"step":{"line":8,"prefix":"Given","index":0,"text":"header Authorization = token"}},{"result":{"nanos":687800,"millis":0.6878,"status":"passed"},"step":{"line":9,"prefix":"Given","index":1,"text":"url 'https:\/\/api.spotify.com'"}},{"result":{"nanos":302200,"millis":0.3022,"status":"passed"},"step":{"line":10,"prefix":"When","index":2,"text":"path '\/v1\/users\/31hdbhs23eghq3nkv3ves3vn3gve\/playlists'"}},{"result":{"nanos":736646200,"millis":736.6462,"status":"passed"},"step":{"line":11,"prefix":"And","index":3,"text":"method GET"},"stepLog":"13:49:00.363 request:\n1 > GET https:\/\/api.spotify.com\/v1\/users\/31hdbhs23eghq3nkv3ves3vn3gve\/playlists\n1 > Authorization: Bearer BQCU97QoaT31NmdLsKBDDZVqB2RgyhbahA6FH5dLGvMgsYj9XIi4K2_8I3HOJWvAZzsQHmqgoiZNVQsBBeY8U0Kg8jodo_sG1MkTlFHqFKJj5FTOmKi4DgAzNi-4j5d2OL3FXKx08dRUOq7PElN1JssaY47UBn9Zx9PtIPU4xH1TvT8G7RV_qc1mMUBIM6eNu__wlGo9BxqiXmL1YVOrZHx8trR9pHHhBYGA\n1 > Host: api.spotify.com\n1 > Connection: Keep-Alive\n1 > User-Agent: Apache-HttpClient\/4.5.12 (Java\/18)\n1 > Accept-Encoding: gzip,deflate\n\n\n13:49:00.914 response time in milliseconds: 549\n1 < 200\n1 < content-type: application\/json; charset=utf-8\n1 < cache-control: public, max-age=0\n1 < etag: \"MC-IjRmOGZjYTc5MWY5ZDdjYmU0YmIxMmE4MDNhYjI2YzlhIg==\"\n1 < x-robots-tag: noindex, nofollow\n1 < access-control-allow-origin: *\n1 < access-control-allow-headers: Accept, App-Platform, Authorization, Content-Type, Origin, Retry-After, Spotify-App-Version, X-Cloud-Trace-Context, client-token, content-access-token\n1 < access-control-allow-methods: GET, POST, OPTIONS, PUT, DELETE, PATCH\n1 < access-control-allow-credentials: true\n1 < access-control-max-age: 604800\n1 < strict-transport-security: max-age=31536000\n1 < x-content-type-options: nosniff\n1 < date: Tue, 14 Jun 2022 10:49:01 GMT\n1 < server: envoy\n1 < Via: HTTP\/2 edgeproxy, 1.1 google\n1 < Alt-Svc: h3=\":443\"; ma=2592000,h3-29=\":443\"; ma=2592000\n1 < Transfer-Encoding: chunked\n{\n  \"href\" : \"https:\/\/api.spotify.com\/v1\/users\/31hdbhs23eghq3nkv3ves3vn3gve\/playlists?offset=0&limit=20\",\n  \"items\" : [ {\n    \"collaborative\" : false,\n    \"description\" : \"New playlist description\",\n    \"external_urls\" : {\n      \"spotify\" : \"https:\/\/open.spotify.com\/playlist\/4AYDu0wCFzquuwguli9tVD\"\n    },\n    \"href\" : \"https:\/\/api.spotify.com\/v1\/playlists\/4AYDu0wCFzquuwguli9tVD\",\n    \"id\" : \"4AYDu0wCFzquuwguli9tVD\",\n    \"images\" : [ ],\n    \"name\" : \"Mentor Labs API\",\n    \"owner\" : {\n      \"display_name\" : \"MUSTAFA\",\n      \"external_urls\" : {\n        \"spotify\" : \"https:\/\/open.spotify.com\/user\/31hdbhs23eghq3nkv3ves3vn3gve\"\n      },\n      \"href\" : \"https:\/\/api.spotify.com\/v1\/users\/31hdbhs23eghq3nkv3ves3vn3gve\",\n      \"id\" : \"31hdbhs23eghq3nkv3ves3vn3gve\",\n      \"type\" : \"user\",\n      \"uri\" : \"spotify:user:31hdbhs23eghq3nkv3ves3vn3gve\"\n    },\n    \"primary_color\" : null,\n    \"public\" : true,\n    \"snapshot_id\" : \"Miw3YjY0OThhZWI0NGUzZTczOGRjYTNmZjczYmFjNWNhY2NhMTExNThk\",\n    \"tracks\" : {\n      \"href\" : \"https:\/\/api.spotify.com\/v1\/playlists\/4AYDu0wCFzquuwguli9tVD\/tracks\",\n      \"total\" : 0\n    },\n    \"type\" : \"playlist\",\n    \"uri\" : \"spotify:playlist:4AYDu0wCFzquuwguli9tVD\"\n  }, {\n    \"collaborative\" : false,\n    \"description\" : \"\",\n    \"external_urls\" : {\n      \"spotify\" : \"https:\/\/open.spotify.com\/playlist\/13o2gQrFpLVXQdmVfCBuY3\"\n    },\n    \"href\" : \"https:\/\/api.spotify.com\/v1\/playlists\/13o2gQrFpLVXQdmVfCBuY3\",\n    \"id\" : \"13o2gQrFpLVXQdmVfCBuY3\",\n    \"images\" : [ ],\n    \"name\" : \"Mentor Labs API\",\n    \"owner\" : {\n      \"display_name\" : \"MUSTAFA\",\n      \"external_urls\" : {\n        \"spotify\" : \"https:\/\/open.spotify.com\/user\/31hdbhs23eghq3nkv3ves3vn3gve\"\n      },\n      \"href\" : \"https:\/\/api.spotify.com\/v1\/users\/31hdbhs23eghq3nkv3ves3vn3gve\",\n      \"id\" : \"31hdbhs23eghq3nkv3ves3vn3gve\",\n      \"type\" : \"user\",\n      \"uri\" : \"spotify:user:31hdbhs23eghq3nkv3ves3vn3gve\"\n    },\n    \"primary_color\" : null,\n    \"public\" : true,\n    \"snapshot_id\" : \"MSxhZDE1ZWY5MGFjOTcyZDc2MzdiOGFkNTQ3OWIzNDc4ZWJiMDQ1NTE5\",\n    \"tracks\" : {\n      \"href\" : \"https:\/\/api.spotify.com\/v1\/playlists\/13o2gQrFpLVXQdmVfCBuY3\/tracks\",\n      \"total\" : 0\n    },\n    \"type\" : \"playlist\",\n    \"uri\" : \"spotify:playlist:13o2gQrFpLVXQdmVfCBuY3\"\n  }, {\n    \"collaborative\" : false,\n    \"description\" : \"New playlist description\",\n    \"external_urls\" : {\n      \"spotify\" : \"https:\/\/open.spotify.com\/playlist\/64pQSSabknKhjt1fC8J7ym\"\n    },\n    \"href\" : \"https:\/\/api.spotify.com\/v1\/playlists\/64pQSSabknKhjt1fC8J7ym\",\n    \"id\" : \"64pQSSabknKhjt1fC8J7ym\",\n    \"images\" : [ ],\n    \"name\" : \"Mentor Labs API\",\n    \"owner\" : {\n      \"display_name\" : \"MUSTAFA\",\n      \"external_urls\" : {\n        \"spotify\" : \"https:\/\/open.spotify.com\/user\/31hdbhs23eghq3nkv3ves3vn3gve\"\n      },\n      \"href\" : \"https:\/\/api.spotify.com\/v1\/users\/31hdbhs23eghq3nkv3ves3vn3gve\",\n      \"id\" : \"31hdbhs23eghq3nkv3ves3vn3gve\",\n      \"type\" : \"user\",\n      \"uri\" : \"spotify:user:31hdbhs23eghq3nkv3ves3vn3gve\"\n    },\n    \"primary_color\" : null,\n    \"public\" : true,\n    \"snapshot_id\" : \"Miw1MjY0OGIwY2Q3MzNhOGJhOTI4NmU5ZGVkNDA2MWQ4MTY2ZDg3NmJj\",\n    \"tracks\" : {\n      \"href\" : \"https:\/\/api.spotify.com\/v1\/playlists\/64pQSSabknKhjt1fC8J7ym\/tracks\",\n      \"total\" : 0\n    },\n    \"type\" : \"playlist\",\n    \"uri\" : \"spotify:playlist:64pQSSabknKhjt1fC8J7ym\"\n  }, {\n    \"collaborative\" : false,\n    \"description\" : \"New playlist description\",\n    \"external_urls\" : {\n      \"spotify\" : \"https:\/\/open.spotify.com\/playlist\/6L0vDFNLGWGkhWLCuD4AIM\"\n    },\n    \"href\" : \"https:\/\/api.spotify.com\/v1\/playlists\/6L0vDFNLGWGkhWLCuD4AIM\",\n    \"id\" : \"6L0vDFNLGWGkhWLCuD4AIM\",\n    \"images\" : [ ],\n    \"name\" : \"Mentor Labs API\",\n    \"owner\" : {\n      \"display_name\" : \"MUSTAFA\",\n      \"external_urls\" : {\n        \"spotify\" : \"https:\/\/open.spotify.com\/user\/31hdbhs23eghq3nkv3ves3vn3gve\"\n      },\n      \"href\" : \"https:\/\/api.spotify.com\/v1\/users\/31hdbhs23eghq3nkv3ves3vn3gve\",\n      \"id\" : \"31hdbhs23eghq3nkv3ves3vn3gve\",\n      \"type\" : \"user\",\n      \"uri\" : \"spotify:user:31hdbhs23eghq3nkv3ves3vn3gve\"\n    },\n    \"primary_color\" : null,\n    \"public\" : true,\n    \"snapshot_id\" : \"MiwwNjAyNGQ2NjA1YWIwZTNmYjIwMjMwMDNjMWM1MjdjMmEzMDVlMjYy\",\n    \"tracks\" : {\n      \"href\" : \"https:\/\/api.spotify.com\/v1\/playlists\/6L0vDFNLGWGkhWLCuD4AIM\/tracks\",\n      \"total\" : 0\n    },\n    \"type\" : \"playlist\",\n    \"uri\" : \"spotify:playlist:6L0vDFNLGWGkhWLCuD4AIM\"\n  }, {\n    \"collaborative\" : false,\n    \"description\" : \"\",\n    \"external_urls\" : {\n      \"spotify\" : \"https:\/\/open.spotify.com\/playlist\/1XtAVEChPeVlkjTgHXIniZ\"\n    },\n    \"href\" : \"https:\/\/api.spotify.com\/v1\/playlists\/1XtAVEChPeVlkjTgHXIniZ\",\n    \"id\" : \"1XtAVEChPeVlkjTgHXIniZ\",\n    \"images\" : [ ],\n    \"name\" : \"Mentor Labs API\",\n    \"owner\" : {\n      \"display_name\" : \"MUSTAFA\",\n      \"external_urls\" : {\n        \"spotify\" : \"https:\/\/open.spotify.com\/user\/31hdbhs23eghq3nkv3ves3vn3gve\"\n      },\n      \"href\" : \"https:\/\/api.spotify.com\/v1\/users\/31hdbhs23eghq3nkv3ves3vn3gve\",\n      \"id\" : \"31hdbhs23eghq3nkv3ves3vn3gve\",\n      \"type\" : \"user\",\n      \"uri\" : \"spotify:user:31hdbhs23eghq3nkv3ves3vn3gve\"\n    },\n    \"primary_color\" : null,\n    \"public\" : true,\n    \"snapshot_id\" : \"MSw0Mjc2MzgwZjdkNTU5NzY2NTBlMDFlZmZkNzljOWU1M2Q5MzJlMmM3\",\n    \"tracks\" : {\n      \"href\" : \"https:\/\/api.spotify.com\/v1\/playlists\/1XtAVEChPeVlkjTgHXIniZ\/tracks\",\n      \"total\" : 0\n    },\n    \"type\" : \"playlist\",\n    \"uri\" : \"spotify:playlist:1XtAVEChPeVlkjTgHXIniZ\"\n  }, {\n    \"collaborative\" : false,\n    \"description\" : \"New playlist description\",\n    \"external_urls\" : {\n      \"spotify\" : \"https:\/\/open.spotify.com\/playlist\/4UBHXpSBXhJbdMyj0NmOUW\"\n    },\n    \"href\" : \"https:\/\/api.spotify.com\/v1\/playlists\/4UBHXpSBXhJbdMyj0NmOUW\",\n    \"id\" : \"4UBHXpSBXhJbdMyj0NmOUW\",\n    \"images\" : [ ],\n    \"name\" : \"Mentor Labs API\",\n    \"owner\" : {\n      \"display_name\" : \"MUSTAFA\",\n      \"external_urls\" : {\n        \"spotify\" : \"https:\/\/open.spotify.com\/user\/31hdbhs23eghq3nkv3ves3vn3gve\"\n      },\n      \"href\" : \"https:\/\/api.spotify.com\/v1\/users\/31hdbhs23eghq3nkv3ves3vn3gve\",\n      \"id\" : \"31hdbhs23eghq3nkv3ves3vn3gve\",\n      \"type\" : \"user\",\n      \"uri\" : \"spotify:user:31hdbhs23eghq3nkv3ves3vn3gve\"\n    },\n    \"primary_color\" : null,\n    \"public\" : true,\n    \"snapshot_id\" : \"MixmMzE5ZmM5OGQ1NWMwMmY4ZmUyYzZlMWY0NDFlZWRlZDllNmRlZTdi\",\n    \"tracks\" : {\n      \"href\" : \"https:\/\/api.spotify.com\/v1\/playlists\/4UBHXpSBXhJbdMyj0NmOUW\/tracks\",\n      \"total\" : 0\n    },\n    \"type\" : \"playlist\",\n    \"uri\" : \"spotify:playlist:4UBHXpSBXhJbdMyj0NmOUW\"\n  }, {\n    \"collaborative\" : false,\n    \"description\" : \"New playlist description\",\n    \"external_urls\" : {\n      \"spotify\" : \"https:\/\/open.spotify.com\/playlist\/3k9i0GF0OJ0EIxogPehrHZ\"\n    },\n    \"href\" : \"https:\/\/api.spotify.com\/v1\/playlists\/3k9i0GF0OJ0EIxogPehrHZ\",\n    \"id\" : \"3k9i0GF0OJ0EIxogPehrHZ\",\n    \"images\" : [ ],\n    \"name\" : \"Mentor Labs API\",\n    \"owner\" : {\n      \"display_name\" : \"MUSTAFA\",\n      \"external_urls\" : {\n        \"spotify\" : \"https:\/\/open.spotify.com\/user\/31hdbhs23eghq3nkv3ves3vn3gve\"\n      },\n      \"href\" : \"https:\/\/api.spotify.com\/v1\/users\/31hdbhs23eghq3nkv3ves3vn3gve\",\n      \"id\" : \"31hdbhs23eghq3nkv3ves3vn3gve\",\n      \"type\" : \"user\",\n      \"uri\" : \"spotify:user:31hdbhs23eghq3nkv3ves3vn3gve\"\n    },\n    \"primary_color\" : null,\n    \"public\" : true,\n    \"snapshot_id\" : \"MiwwZGQzMTAzOWJlYzlkN2U1MWY1ZjA1YTAxNzljMjU1NTRiODBkY2Nl\",\n    \"tracks\" : {\n      \"href\" : \"https:\/\/api.spotify.com\/v1\/playlists\/3k9i0GF0OJ0EIxogPehrHZ\/tracks\",\n      \"total\" : 0\n    },\n    \"type\" : \"playlist\",\n    \"uri\" : \"spotify:playlist:3k9i0GF0OJ0EIxogPehrHZ\"\n  }, {\n    \"collaborative\" : false,\n    \"description\" : \"New playlist description\",\n    \"external_urls\" : {\n      \"spotify\" : \"https:\/\/open.spotify.com\/playlist\/0GGdWfK6mxgbNB8d4lJRl1\"\n    },\n    \"href\" : \"https:\/\/api.spotify.com\/v1\/playlists\/0GGdWfK6mxgbNB8d4lJRl1\",\n    \"id\" : \"0GGdWfK6mxgbNB8d4lJRl1\",\n    \"images\" : [ ],\n    \"name\" : \"Mentor Labs API\",\n    \"owner\" : {\n      \"display_name\" : \"MUSTAFA\",\n      \"external_urls\" : {\n        \"spotify\" : \"https:\/\/open.spotify.com\/user\/31hdbhs23eghq3nkv3ves3vn3gve\"\n      },\n      \"href\" : \"https:\/\/api.spotify.com\/v1\/users\/31hdbhs23eghq3nkv3ves3vn3gve\",\n      \"id\" : \"31hdbhs23eghq3nkv3ves3vn3gve\",\n      \"type\" : \"user\",\n      \"uri\" : \"spotify:user:31hdbhs23eghq3nkv3ves3vn3gve\"\n    },\n    \"primary_color\" : null,\n    \"public\" : true,\n    \"snapshot_id\" : \"MixkOTgzODNhZjNmM2RmOTIwMTI1YmY3ZWRhZTY5ODQ4OTZhZmZjYmQ4\",\n    \"tracks\" : {\n      \"href\" : \"https:\/\/api.spotify.com\/v1\/playlists\/0GGdWfK6mxgbNB8d4lJRl1\/tracks\",\n      \"total\" : 0\n    },\n    \"type\" : \"playlist\",\n    \"uri\" : \"spotify:playlist:0GGdWfK6mxgbNB8d4lJRl1\"\n  }, {\n    \"collaborative\" : false,\n    \"description\" : \"New playlist description\",\n    \"external_urls\" : {\n      \"spotify\" : \"https:\/\/open.spotify.com\/playlist\/7CrGXbsodGMICjt4kfvYDk\"\n    },\n    \"href\" : \"https:\/\/api.spotify.com\/v1\/playlists\/7CrGXbsodGMICjt4kfvYDk\",\n    \"id\" : \"7CrGXbsodGMICjt4kfvYDk\",\n    \"images\" : [ ],\n    \"name\" : \"Mentor Labs API\",\n    \"owner\" : {\n      \"display_name\" : \"MUSTAFA\",\n      \"external_urls\" : {\n        \"spotify\" : \"https:\/\/open.spotify.com\/user\/31hdbhs23eghq3nkv3ves3vn3gve\"\n      },\n      \"href\" : \"https:\/\/api.spotify.com\/v1\/users\/31hdbhs23eghq3nkv3ves3vn3gve\",\n      \"id\" : \"31hdbhs23eghq3nkv3ves3vn3gve\",\n      \"type\" : \"user\",\n      \"uri\" : \"spotify:user:31hdbhs23eghq3nkv3ves3vn3gve\"\n    },\n    \"primary_color\" : null,\n    \"public\" : true,\n    \"snapshot_id\" : \"MixkZGU5ZjYwM2RhY2EzNDI0NWQyNjc5NzM1NTViYmVlNjVjNDVkMDZj\",\n    \"tracks\" : {\n      \"href\" : \"https:\/\/api.spotify.com\/v1\/playlists\/7CrGXbsodGMICjt4kfvYDk\/tracks\",\n      \"total\" : 0\n    },\n    \"type\" : \"playlist\",\n    \"uri\" : \"spotify:playlist:7CrGXbsodGMICjt4kfvYDk\"\n  }, {\n    \"collaborative\" : false,\n    \"description\" : \"New playlist description\",\n    \"external_urls\" : {\n      \"spotify\" : \"https:\/\/open.spotify.com\/playlist\/6s15hsAbehOfGSi6ILFCz6\"\n    },\n    \"href\" : \"https:\/\/api.spotify.com\/v1\/playlists\/6s15hsAbehOfGSi6ILFCz6\",\n    \"id\" : \"6s15hsAbehOfGSi6ILFCz6\",\n    \"images\" : [ ],\n    \"name\" : \"Mentor Labs API\",\n    \"owner\" : {\n      \"display_name\" : \"MUSTAFA\",\n      \"external_urls\" : {\n        \"spotify\" : \"https:\/\/open.spotify.com\/user\/31hdbhs23eghq3nkv3ves3vn3gve\"\n      },\n      \"href\" : \"https:\/\/api.spotify.com\/v1\/users\/31hdbhs23eghq3nkv3ves3vn3gve\",\n      \"id\" : \"31hdbhs23eghq3nkv3ves3vn3gve\",\n      \"type\" : \"user\",\n      \"uri\" : \"spotify:user:31hdbhs23eghq3nkv3ves3vn3gve\"\n    },\n    \"primary_color\" : null,\n    \"public\" : true,\n    \"snapshot_id\" : \"Miw2NWQxZWZjMmYyOGRiNDM0NDFjOTc4MTQzMjg0YTY0ZDI2MWRlMTU0\",\n    \"tracks\" : {\n      \"href\" : \"https:\/\/api.spotify.com\/v1\/playlists\/6s15hsAbehOfGSi6ILFCz6\/tracks\",\n      \"total\" : 0\n    },\n    \"type\" : \"playlist\",\n    \"uri\" : \"spotify:playlist:6s15hsAbehOfGSi6ILFCz6\"\n  }, {\n    \"collaborative\" : false,\n    \"description\" : \"New playlist description\",\n    \"external_urls\" : {\n      \"spotify\" : \"https:\/\/open.spotify.com\/playlist\/1WMCndNdGqVkIJRIU4Q5eE\"\n    },\n    \"href\" : \"https:\/\/api.spotify.com\/v1\/playlists\/1WMCndNdGqVkIJRIU4Q5eE\",\n    \"id\" : \"1WMCndNdGqVkIJRIU4Q5eE\",\n    \"images\" : [ ],\n    \"name\" : \"Mentor Labs API\",\n    \"owner\" : {\n      \"display_name\" : \"MUSTAFA\",\n      \"external_urls\" : {\n        \"spotify\" : \"https:\/\/open.spotify.com\/user\/31hdbhs23eghq3nkv3ves3vn3gve\"\n      },\n      \"href\" : \"https:\/\/api.spotify.com\/v1\/users\/31hdbhs23eghq3nkv3ves3vn3gve\",\n      \"id\" : \"31hdbhs23eghq3nkv3ves3vn3gve\",\n      \"type\" : \"user\",\n      \"uri\" : \"spotify:user:31hdbhs23eghq3nkv3ves3vn3gve\"\n    },\n    \"primary_color\" : null,\n    \"public\" : true,\n    \"snapshot_id\" : \"Miw1YzliZTA0Nzk5NzRjMTdkNmRiZWNmMGY4Yjc5YWUyYzBjODc3NDkz\",\n    \"tracks\" : {\n      \"href\" : \"https:\/\/api.spotify.com\/v1\/playlists\/1WMCndNdGqVkIJRIU4Q5eE\/tracks\",\n      \"total\" : 0\n    },\n    \"type\" : \"playlist\",\n    \"uri\" : \"spotify:playlist:1WMCndNdGqVkIJRIU4Q5eE\"\n  }, {\n    \"collaborative\" : false,\n    \"description\" : \"\",\n    \"external_urls\" : {\n      \"spotify\" : \"https:\/\/open.spotify.com\/playlist\/23OFZt5heZ4Q9onElXABhX\"\n    },\n    \"href\" : \"https:\/\/api.spotify.com\/v1\/playlists\/23OFZt5heZ4Q9onElXABhX\",\n    \"id\" : \"23OFZt5heZ4Q9onElXABhX\",\n    \"images\" : [ ],\n    \"name\" : \"Mentor Labs API\",\n    \"owner\" : {\n      \"display_name\" : \"MUSTAFA\",\n      \"external_urls\" : {\n        \"spotify\" : \"https:\/\/open.spotify.com\/user\/31hdbhs23eghq3nkv3ves3vn3gve\"\n      },\n      \"href\" : \"https:\/\/api.spotify.com\/v1\/users\/31hdbhs23eghq3nkv3ves3vn3gve\",\n      \"id\" : \"31hdbhs23eghq3nkv3ves3vn3gve\",\n      \"type\" : \"user\",\n      \"uri\" : \"spotify:user:31hdbhs23eghq3nkv3ves3vn3gve\"\n    },\n    \"primary_color\" : null,\n    \"public\" : true,\n    \"snapshot_id\" : \"MSw1OGJmN2FkYjA4YmY4NWMxNjM3YzgxZjZmYmFlNjgzYjUzZmZjNTk4\",\n    \"tracks\" : {\n      \"href\" : \"https:\/\/api.spotify.com\/v1\/playlists\/23OFZt5heZ4Q9onElXABhX\/tracks\",\n      \"total\" : 0\n    },\n    \"type\" : \"playlist\",\n    \"uri\" : \"spotify:playlist:23OFZt5heZ4Q9onElXABhX\"\n  }, {\n    \"collaborative\" : false,\n    \"description\" : \"New playlist description\",\n    \"external_urls\" : {\n      \"spotify\" : \"https:\/\/open.spotify.com\/playlist\/6VvLxWD4Y6qc1tMgGBm6w5\"\n    },\n    \"href\" : \"https:\/\/api.spotify.com\/v1\/playlists\/6VvLxWD4Y6qc1tMgGBm6w5\",\n    \"id\" : \"6VvLxWD4Y6qc1tMgGBm6w5\",\n    \"images\" : [ ],\n    \"name\" : \"Mentor Labs API\",\n    \"owner\" : {\n      \"display_name\" : \"MUSTAFA\",\n      \"external_urls\" : {\n        \"spotify\" : \"https:\/\/open.spotify.com\/user\/31hdbhs23eghq3nkv3ves3vn3gve\"\n      },\n      \"href\" : \"https:\/\/api.spotify.com\/v1\/users\/31hdbhs23eghq3nkv3ves3vn3gve\",\n      \"id\" : \"31hdbhs23eghq3nkv3ves3vn3gve\",\n      \"type\" : \"user\",\n      \"uri\" : \"spotify:user:31hdbhs23eghq3nkv3ves3vn3gve\"\n    },\n    \"primary_color\" : null,\n    \"public\" : true,\n    \"snapshot_id\" : \"Miw2MDRhMzNkYjk0ODdjMjgyYWQyN2ZmMWQ2ZTBkOTI5ZmEyMTU0ZDAy\",\n    \"tracks\" : {\n      \"href\" : \"https:\/\/api.spotify.com\/v1\/playlists\/6VvLxWD4Y6qc1tMgGBm6w5\/tracks\",\n      \"total\" : 0\n    },\n    \"type\" : \"playlist\",\n    \"uri\" : \"spotify:playlist:6VvLxWD4Y6qc1tMgGBm6w5\"\n  }, {\n    \"collaborative\" : false,\n    \"description\" : \"\",\n    \"external_urls\" : {\n      \"spotify\" : \"https:\/\/open.spotify.com\/playlist\/1vx1m1jNKY6rHKpTSYA4v5\"\n    },\n    \"href\" : \"https:\/\/api.spotify.com\/v1\/playlists\/1vx1m1jNKY6rHKpTSYA4v5\",\n    \"id\" : \"1vx1m1jNKY6rHKpTSYA4v5\",\n    \"images\" : [ ],\n    \"name\" : \"Mentor Labs API\",\n    \"owner\" : {\n      \"display_name\" : \"MUSTAFA\",\n      \"external_urls\" : {\n        \"spotify\" : \"https:\/\/open.spotify.com\/user\/31hdbhs23eghq3nkv3ves3vn3gve\"\n      },\n      \"href\" : \"https:\/\/api.spotify.com\/v1\/users\/31hdbhs23eghq3nkv3ves3vn3gve\",\n      \"id\" : \"31hdbhs23eghq3nkv3ves3vn3gve\",\n      \"type\" : \"user\",\n      \"uri\" : \"spotify:user:31hdbhs23eghq3nkv3ves3vn3gve\"\n    },\n    \"primary_color\" : null,\n    \"public\" : true,\n    \"snapshot_id\" : \"MSxhODgxMGY5MmEzYmQ3ZTZhYmZhZDhkNmMyYTIwYjNmODIzYWYwZTAx\",\n    \"tracks\" : {\n      \"href\" : \"https:\/\/api.spotify.com\/v1\/playlists\/1vx1m1jNKY6rHKpTSYA4v5\/tracks\",\n      \"total\" : 0\n    },\n    \"type\" : \"playlist\",\n    \"uri\" : \"spotify:playlist:1vx1m1jNKY6rHKpTSYA4v5\"\n  }, {\n    \"collaborative\" : false,\n    \"description\" : \"New playlist description\",\n    \"external_urls\" : {\n      \"spotify\" : \"https:\/\/open.spotify.com\/playlist\/163NrMzTqpVHYOcsjBu5rs\"\n    },\n    \"href\" : \"https:\/\/api.spotify.com\/v1\/playlists\/163NrMzTqpVHYOcsjBu5rs\",\n    \"id\" : \"163NrMzTqpVHYOcsjBu5rs\",\n    \"images\" : [ ],\n    \"name\" : \"Mentor Labs API\",\n    \"owner\" : {\n      \"display_name\" : \"MUSTAFA\",\n      \"external_urls\" : {\n        \"spotify\" : \"https:\/\/open.spotify.com\/user\/31hdbhs23eghq3nkv3ves3vn3gve\"\n      },\n      \"href\" : \"https:\/\/api.spotify.com\/v1\/users\/31hdbhs23eghq3nkv3ves3vn3gve\",\n      \"id\" : \"31hdbhs23eghq3nkv3ves3vn3gve\",\n      \"type\" : \"user\",\n      \"uri\" : \"spotify:user:31hdbhs23eghq3nkv3ves3vn3gve\"\n    },\n    \"primary_color\" : null,\n    \"public\" : true,\n    \"snapshot_id\" : \"MixiODA2ZTIwYjNjYjYzYjg0ZTUwMGY1NGYwYjIwMDA0NDk1ZTA3NmM4\",\n    \"tracks\" : {\n      \"href\" : \"https:\/\/api.spotify.com\/v1\/playlists\/163NrMzTqpVHYOcsjBu5rs\/tracks\",\n      \"total\" : 0\n    },\n    \"type\" : \"playlist\",\n    \"uri\" : \"spotify:playlist:163NrMzTqpVHYOcsjBu5rs\"\n  }, {\n    \"collaborative\" : false,\n    \"description\" : \"New playlist description\",\n    \"external_urls\" : {\n      \"spotify\" : \"https:\/\/open.spotify.com\/playlist\/2Djn76hft5TcyuYh35d4I6\"\n    },\n    \"href\" : \"https:\/\/api.spotify.com\/v1\/playlists\/2Djn76hft5TcyuYh35d4I6\",\n    \"id\" : \"2Djn76hft5TcyuYh35d4I6\",\n    \"images\" : [ ],\n    \"name\" : \"Mentor Labs API\",\n    \"owner\" : {\n      \"display_name\" : \"MUSTAFA\",\n      \"external_urls\" : {\n        \"spotify\" : \"https:\/\/open.spotify.com\/user\/31hdbhs23eghq3nkv3ves3vn3gve\"\n      },\n      \"href\" : \"https:\/\/api.spotify.com\/v1\/users\/31hdbhs23eghq3nkv3ves3vn3gve\",\n      \"id\" : \"31hdbhs23eghq3nkv3ves3vn3gve\",\n      \"type\" : \"user\",\n      \"uri\" : \"spotify:user:31hdbhs23eghq3nkv3ves3vn3gve\"\n    },\n    \"primary_color\" : null,\n    \"public\" : true,\n    \"snapshot_id\" : \"MiwzOGJiYWUzMzllYTJkZjZlMmFkY2ZkMDE1ZmNiNDkyODAzODFkMzM3\",\n    \"tracks\" : {\n      \"href\" : \"https:\/\/api.spotify.com\/v1\/playlists\/2Djn76hft5TcyuYh35d4I6\/tracks\",\n      \"total\" : 0\n    },\n    \"type\" : \"playlist\",\n    \"uri\" : \"spotify:playlist:2Djn76hft5TcyuYh35d4I6\"\n  }, {\n    \"collaborative\" : false,\n    \"description\" : \"New playlist description\",\n    \"external_urls\" : {\n      \"spotify\" : \"https:\/\/open.spotify.com\/playlist\/46zS01jPtGsiW6p0tbjGDJ\"\n    },\n    \"href\" : \"https:\/\/api.spotify.com\/v1\/playlists\/46zS01jPtGsiW6p0tbjGDJ\",\n    \"id\" : \"46zS01jPtGsiW6p0tbjGDJ\",\n    \"images\" : [ ],\n    \"name\" : \"Mentor Labs API\",\n    \"owner\" : {\n      \"display_name\" : \"MUSTAFA\",\n      \"external_urls\" : {\n        \"spotify\" : \"https:\/\/open.spotify.com\/user\/31hdbhs23eghq3nkv3ves3vn3gve\"\n      },\n      \"href\" : \"https:\/\/api.spotify.com\/v1\/users\/31hdbhs23eghq3nkv3ves3vn3gve\",\n      \"id\" : \"31hdbhs23eghq3nkv3ves3vn3gve\",\n      \"type\" : \"user\",\n      \"uri\" : \"spotify:user:31hdbhs23eghq3nkv3ves3vn3gve\"\n    },\n    \"primary_color\" : null,\n    \"public\" : true,\n    \"snapshot_id\" : \"MiwzMzc3ZWQyY2FlNWFhMjMyYWJiZDc4Yzk0YzBkYjY5YTAxYTRhODEy\",\n    \"tracks\" : {\n      \"href\" : \"https:\/\/api.spotify.com\/v1\/playlists\/46zS01jPtGsiW6p0tbjGDJ\/tracks\",\n      \"total\" : 0\n    },\n    \"type\" : \"playlist\",\n    \"uri\" : \"spotify:playlist:46zS01jPtGsiW6p0tbjGDJ\"\n  }, {\n    \"collaborative\" : false,\n    \"description\" : \"\",\n    \"external_urls\" : {\n      \"spotify\" : \"https:\/\/open.spotify.com\/playlist\/4ds5uUtsD4yLhsGifKhgBf\"\n    },\n    \"href\" : \"https:\/\/api.spotify.com\/v1\/playlists\/4ds5uUtsD4yLhsGifKhgBf\",\n    \"id\" : \"4ds5uUtsD4yLhsGifKhgBf\",\n    \"images\" : [ ],\n    \"name\" : \"Mentor Labs API\",\n    \"owner\" : {\n      \"display_name\" : \"MUSTAFA\",\n      \"external_urls\" : {\n        \"spotify\" : \"https:\/\/open.spotify.com\/user\/31hdbhs23eghq3nkv3ves3vn3gve\"\n      },\n      \"href\" : \"https:\/\/api.spotify.com\/v1\/users\/31hdbhs23eghq3nkv3ves3vn3gve\",\n      \"id\" : \"31hdbhs23eghq3nkv3ves3vn3gve\",\n      \"type\" : \"user\",\n      \"uri\" : \"spotify:user:31hdbhs23eghq3nkv3ves3vn3gve\"\n    },\n    \"primary_color\" : null,\n    \"public\" : true,\n    \"snapshot_id\" : \"MSxmYjRmNDg0ZjVlNWFjZmQ3NWY4NWQyM2Y5NGU2MWQ1NWYxYzJjYjhh\",\n    \"tracks\" : {\n      \"href\" : \"https:\/\/api.spotify.com\/v1\/playlists\/4ds5uUtsD4yLhsGifKhgBf\/tracks\",\n      \"total\" : 0\n    },\n    \"type\" : \"playlist\",\n    \"uri\" : \"spotify:playlist:4ds5uUtsD4yLhsGifKhgBf\"\n  }, {\n    \"collaborative\" : false,\n    \"description\" : \"New playlist description\",\n    \"external_urls\" : {\n      \"spotify\" : \"https:\/\/open.spotify.com\/playlist\/3D4H2aKWgAH264pXwtvwmG\"\n    },\n    \"href\" : \"https:\/\/api.spotify.com\/v1\/playlists\/3D4H2aKWgAH264pXwtvwmG\",\n    \"id\" : \"3D4H2aKWgAH264pXwtvwmG\",\n    \"images\" : [ ],\n    \"name\" : \"Mentor Labs API\",\n    \"owner\" : {\n      \"display_name\" : \"MUSTAFA\",\n      \"external_urls\" : {\n        \"spotify\" : \"https:\/\/open.spotify.com\/user\/31hdbhs23eghq3nkv3ves3vn3gve\"\n      },\n      \"href\" : \"https:\/\/api.spotify.com\/v1\/users\/31hdbhs23eghq3nkv3ves3vn3gve\",\n      \"id\" : \"31hdbhs23eghq3nkv3ves3vn3gve\",\n      \"type\" : \"user\",\n      \"uri\" : \"spotify:user:31hdbhs23eghq3nkv3ves3vn3gve\"\n    },\n    \"primary_color\" : null,\n    \"public\" : true,\n    \"snapshot_id\" : \"MixiNWVkODBjZjk0MDMzYWI1YTQzNTgyYjJkMGIzYjcwZGM0OGJlYjJk\",\n    \"tracks\" : {\n      \"href\" : \"https:\/\/api.spotify.com\/v1\/playlists\/3D4H2aKWgAH264pXwtvwmG\/tracks\",\n      \"total\" : 0\n    },\n    \"type\" : \"playlist\",\n    \"uri\" : \"spotify:playlist:3D4H2aKWgAH264pXwtvwmG\"\n  }, {\n    \"collaborative\" : false,\n    \"description\" : \"New playlist description\",\n    \"external_urls\" : {\n      \"spotify\" : \"https:\/\/open.spotify.com\/playlist\/4tSdovLzVHstY0al6DwClx\"\n    },\n    \"href\" : \"https:\/\/api.spotify.com\/v1\/playlists\/4tSdovLzVHstY0al6DwClx\",\n    \"id\" : \"4tSdovLzVHstY0al6DwClx\",\n    \"images\" : [ ],\n    \"name\" : \"Mentor Labs API\",\n    \"owner\" : {\n      \"display_name\" : \"MUSTAFA\",\n      \"external_urls\" : {\n        \"spotify\" : \"https:\/\/open.spotify.com\/user\/31hdbhs23eghq3nkv3ves3vn3gve\"\n      },\n      \"href\" : \"https:\/\/api.spotify.com\/v1\/users\/31hdbhs23eghq3nkv3ves3vn3gve\",\n      \"id\" : \"31hdbhs23eghq3nkv3ves3vn3gve\",\n      \"type\" : \"user\",\n      \"uri\" : \"spotify:user:31hdbhs23eghq3nkv3ves3vn3gve\"\n    },\n    \"primary_color\" : null,\n    \"public\" : true,\n    \"snapshot_id\" : \"MixhNzFjMWQ4YWRhZjAwOWUyYWIyYTRkMGYwYThiZWRhZDFhZmRlY2Mz\",\n    \"tracks\" : {\n      \"href\" : \"https:\/\/api.spotify.com\/v1\/playlists\/4tSdovLzVHstY0al6DwClx\/tracks\",\n      \"total\" : 0\n    },\n    \"type\" : \"playlist\",\n    \"uri\" : \"spotify:playlist:4tSdovLzVHstY0al6DwClx\"\n  } ],\n  \"limit\" : 20,\n  \"next\" : \"https:\/\/api.spotify.com\/v1\/users\/31hdbhs23eghq3nkv3ves3vn3gve\/playlists?offset=20&limit=20\",\n  \"offset\" : 0,\n  \"previous\" : null,\n  \"total\" : 43\n}\n\n"},{"result":{"nanos":14115900,"millis":14.1159,"status":"passed"},"step":{"line":12,"prefix":"And","index":4,"text":"def listId = response.items[0].id"}},{"result":{"nanos":696300,"millis":0.6963,"status":"passed"},"step":{"line":13,"prefix":"And","index":5,"text":"def listName = response.items[0].name"}},{"result":{"nanos":2023100,"millis":2.0231,"status":"passed"},"step":{"line":14,"prefix":"Then","index":6,"text":"status 200"}},{"result":{"nanos":21880200,"millis":21.8802,"status":"passed"},"step":{"line":15,"prefix":"*","index":7,"text":"print listId"},"stepLog":"13:49:00.973 [print] 4AYDu0wCFzquuwguli9tVD \n"},{"result":{"nanos":336500,"millis":0.3365,"status":"passed"},"step":{"line":16,"prefix":"*","index":8,"text":"print listId"},"stepLog":"13:49:00.974 [print] 4AYDu0wCFzquuwguli9tVD \n"},{"result":{"nanos":190900,"millis":0.1909,"status":"passed"},"step":{"line":17,"prefix":"*","index":9,"text":"print listId"},"stepLog":"13:49:00.974 [print] 4AYDu0wCFzquuwguli9tVD \n"},{"result":{"nanos":126400,"millis":0.1264,"status":"passed"},"step":{"line":18,"prefix":"*","index":10,"text":"print listId"},"stepLog":"13:49:00.974 [print] 4AYDu0wCFzquuwguli9tVD \n"},{"result":{"nanos":170900,"millis":0.1709,"status":"passed"},"step":{"line":19,"prefix":"*","index":11,"text":"print listId"},"stepLog":"13:49:00.974 [print] 4AYDu0wCFzquuwguli9tVD \n"},{"result":{"nanos":158400,"millis":0.1584,"status":"passed"},"step":{"line":20,"prefix":"*","index":12,"text":"print listId"},"stepLog":"13:49:00.974 [print] 4AYDu0wCFzquuwguli9tVD \n"},{"result":{"nanos":185100,"millis":0.1851,"status":"passed"},"step":{"line":21,"prefix":"*","index":13,"text":"print listId"},"stepLog":"13:49:00.975 [print] 4AYDu0wCFzquuwguli9tVD \n"},{"result":{"nanos":624900,"millis":0.6249,"status":"passed"},"step":{"line":22,"prefix":"*","index":14,"text":"print listName"},"stepLog":"13:49:00.975 [print] Mentor Labs API \n"}],"line":6,"description":"","durationMillis":841.2984,"failed":false,"tags":["UcuncuSenaryo"],"executorName":"main","name":"PlayList Listele ve Id al","startTime":1655203740124,"refId":"[1:6]","endTime":1655203740975,"exampleIndex":-1}],"callDepth":0,"name":"Idi Bul","description":"","resultDate":"2022-06-14 01:49:00 ÖS","durationMillis":841.2984,"passedCount":1}