{"failedCount":0,"prefixedPath":"src\/test\/java\/APITest\/IdBul.feature","packageQualifiedName":"src.test.java.APITest.IdBul","loopIndex":-1,"relativePath":"src\/test\/java\/APITest\/IdBul.feature","scenarioResults":[{"sectionIndex":0,"stepResults":[{"result":{"nanos":50125300,"millis":50.1253,"status":"passed"},"step":{"background":true,"line":3,"prefix":"*","index":0,"text":"def token = \"Bearer BQCp7xqFyvczwOqconHNcbHMNX4qV8NXTAK9HTdHeT9BoAQnYizvKWohavYJ5wuoQE4rJW3KOxV7ihsZyJzQJ_g5lG4Ilfja_lKlwjYUA9p1xWGio9ieJUjc_SFHzUMXv7Rp9a4FfSMdnvoZwbITQvtsd9_2-FE0CqZJ42ZfCe8QN0eTpiFburoy64buz1zAXok9diVP21E1fggddVSd4RAXFhTSjaSYAp2V\""}},{"result":{"nanos":10716200,"millis":10.7162,"status":"passed"},"step":{"line":8,"prefix":"Given","index":0,"text":"header Authorization = token"}},{"result":{"nanos":1027600,"millis":1.0276,"status":"passed"},"step":{"line":9,"prefix":"Given","index":1,"text":"url 'https:\/\/api.spotify.com'"}},{"result":{"nanos":337300,"millis":0.3373,"status":"passed"},"step":{"line":10,"prefix":"When","index":2,"text":"path '\/v1\/users\/31hdbhs23eghq3nkv3ves3vn3gve\/playlists'"}},{"result":{"nanos":528411800,"millis":528.4118,"status":"passed"},"step":{"line":11,"prefix":"And","index":3,"text":"method GET"},"stepLog":"14:43:54.883 request:\n1 > GET https:\/\/api.spotify.com\/v1\/users\/31hdbhs23eghq3nkv3ves3vn3gve\/playlists\n1 > Authorization: Bearer BQCp7xqFyvczwOqconHNcbHMNX4qV8NXTAK9HTdHeT9BoAQnYizvKWohavYJ5wuoQE4rJW3KOxV7ihsZyJzQJ_g5lG4Ilfja_lKlwjYUA9p1xWGio9ieJUjc_SFHzUMXv7Rp9a4FfSMdnvoZwbITQvtsd9_2-FE0CqZJ42ZfCe8QN0eTpiFburoy64buz1zAXok9diVP21E1fggddVSd4RAXFhTSjaSYAp2V\n1 > Host: api.spotify.com\n1 > Connection: Keep-Alive\n1 > User-Agent: Apache-HttpClient\/4.5.12 (Java\/18)\n1 > Accept-Encoding: gzip,deflate\n\n\n14:43:55.231 response time in milliseconds: 346\n1 < 200\n1 < content-type: application\/json; charset=utf-8\n1 < cache-control: public, max-age=0\n1 < etag: \"MC-Ijc3Yjc0Y2JmZGMyZjNhNDFmYmFlYmE5ODhlN2Y5YzY5Ig==\"\n1 < x-robots-tag: noindex, nofollow\n1 < access-control-allow-origin: *\n1 < access-control-allow-headers: Accept, App-Platform, Authorization, Content-Type, Origin, Retry-After, Spotify-App-Version, X-Cloud-Trace-Context, client-token, content-access-token\n1 < access-control-allow-methods: GET, POST, OPTIONS, PUT, DELETE, PATCH\n1 < access-control-allow-credentials: true\n1 < access-control-max-age: 604800\n1 < strict-transport-security: max-age=31536000\n1 < x-content-type-options: nosniff\n1 < date: Tue, 14 Jun 2022 11:43:55 GMT\n1 < server: envoy\n1 < Via: HTTP\/2 edgeproxy, 1.1 google\n1 < Alt-Svc: h3=\":443\"; ma=2592000,h3-29=\":443\"; ma=2592000\n1 < Transfer-Encoding: chunked\n{\n  \"href\" : \"https:\/\/api.spotify.com\/v1\/users\/31hdbhs23eghq3nkv3ves3vn3gve\/playlists?offset=0&limit=20\",\n  \"items\" : [ {\n    \"collaborative\" : false,\n    \"description\" : \"New playlist description\",\n    \"external_urls\" : {\n      \"spotify\" : \"https:\/\/open.spotify.com\/playlist\/5dtgyZ5Zbij3tCBfT2wYwh\"\n    },\n    \"href\" : \"https:\/\/api.spotify.com\/v1\/playlists\/5dtgyZ5Zbij3tCBfT2wYwh\",\n    \"id\" : \"5dtgyZ5Zbij3tCBfT2wYwh\",\n    \"images\" : [ ],\n    \"name\" : \"Mentor Labs API\",\n    \"owner\" : {\n      \"display_name\" : \"MUSTAFA\",\n      \"external_urls\" : {\n        \"spotify\" : \"https:\/\/open.spotify.com\/user\/31hdbhs23eghq3nkv3ves3vn3gve\"\n      },\n      \"href\" : \"https:\/\/api.spotify.com\/v1\/users\/31hdbhs23eghq3nkv3ves3vn3gve\",\n      \"id\" : \"31hdbhs23eghq3nkv3ves3vn3gve\",\n      \"type\" : \"user\",\n      \"uri\" : \"spotify:user:31hdbhs23eghq3nkv3ves3vn3gve\"\n    },\n    \"primary_color\" : null,\n    \"public\" : true,\n    \"snapshot_id\" : \"Miw5N2U4ZGUxMmQ4NzVkYWNjNDUxYWNkYzg1NmZmNzFkNmQ3OTBiZjcy\",\n    \"tracks\" : {\n      \"href\" : \"https:\/\/api.spotify.com\/v1\/playlists\/5dtgyZ5Zbij3tCBfT2wYwh\/tracks\",\n      \"total\" : 0\n    },\n    \"type\" : \"playlist\",\n    \"uri\" : \"spotify:playlist:5dtgyZ5Zbij3tCBfT2wYwh\"\n  }, {\n    \"collaborative\" : false,\n    \"description\" : \"New playlist description\",\n    \"external_urls\" : {\n      \"spotify\" : \"https:\/\/open.spotify.com\/playlist\/0lNfIy3JR3EEyNakM9hiu4\"\n    },\n    \"href\" : \"https:\/\/api.spotify.com\/v1\/playlists\/0lNfIy3JR3EEyNakM9hiu4\",\n    \"id\" : \"0lNfIy3JR3EEyNakM9hiu4\",\n    \"images\" : [ {\n      \"height\" : 640,\n      \"url\" : \"https:\/\/i.scdn.co\/image\/ab67616d0000b273e8b066f70c206551210d902b\",\n      \"width\" : 640\n    } ],\n    \"name\" : \"Mentor Labs API\",\n    \"owner\" : {\n      \"display_name\" : \"MUSTAFA\",\n      \"external_urls\" : {\n        \"spotify\" : \"https:\/\/open.spotify.com\/user\/31hdbhs23eghq3nkv3ves3vn3gve\"\n      },\n      \"href\" : \"https:\/\/api.spotify.com\/v1\/users\/31hdbhs23eghq3nkv3ves3vn3gve\",\n      \"id\" : \"31hdbhs23eghq3nkv3ves3vn3gve\",\n      \"type\" : \"user\",\n      \"uri\" : \"spotify:user:31hdbhs23eghq3nkv3ves3vn3gve\"\n    },\n    \"primary_color\" : null,\n    \"public\" : true,\n    \"snapshot_id\" : \"MywyMzdmNzgyMDI5OGFjYzFiMWFiNzdiZDhkM2JiODMzZDEyYTc0NmNj\",\n    \"tracks\" : {\n      \"href\" : \"https:\/\/api.spotify.com\/v1\/playlists\/0lNfIy3JR3EEyNakM9hiu4\/tracks\",\n      \"total\" : 1\n    },\n    \"type\" : \"playlist\",\n    \"uri\" : \"spotify:playlist:0lNfIy3JR3EEyNakM9hiu4\"\n  }, {\n    \"collaborative\" : false,\n    \"description\" : \"New playlist description\",\n    \"external_urls\" : {\n      \"spotify\" : \"https:\/\/open.spotify.com\/playlist\/4AYDu0wCFzquuwguli9tVD\"\n    },\n    \"href\" : \"https:\/\/api.spotify.com\/v1\/playlists\/4AYDu0wCFzquuwguli9tVD\",\n    \"id\" : \"4AYDu0wCFzquuwguli9tVD\",\n    \"images\" : [ ],\n    \"name\" : \"Mentor Labs API\",\n    \"owner\" : {\n      \"display_name\" : \"MUSTAFA\",\n      \"external_urls\" : {\n        \"spotify\" : \"https:\/\/open.spotify.com\/user\/31hdbhs23eghq3nkv3ves3vn3gve\"\n      },\n      \"href\" : \"https:\/\/api.spotify.com\/v1\/users\/31hdbhs23eghq3nkv3ves3vn3gve\",\n      \"id\" : \"31hdbhs23eghq3nkv3ves3vn3gve\",\n      \"type\" : \"user\",\n      \"uri\" : \"spotify:user:31hdbhs23eghq3nkv3ves3vn3gve\"\n    },\n    \"primary_color\" : null,\n    \"public\" : true,\n    \"snapshot_id\" : \"Miw3YjY0OThhZWI0NGUzZTczOGRjYTNmZjczYmFjNWNhY2NhMTExNThk\",\n    \"tracks\" : {\n      \"href\" : \"https:\/\/api.spotify.com\/v1\/playlists\/4AYDu0wCFzquuwguli9tVD\/tracks\",\n      \"total\" : 0\n    },\n    \"type\" : \"playlist\",\n    \"uri\" : \"spotify:playlist:4AYDu0wCFzquuwguli9tVD\"\n  }, {\n    \"collaborative\" : false,\n    \"description\" : \"New playlist description\",\n    \"external_urls\" : {\n      \"spotify\" : \"https:\/\/open.spotify.com\/playlist\/1WMCndNdGqVkIJRIU4Q5eE\"\n    },\n    \"href\" : \"https:\/\/api.spotify.com\/v1\/playlists\/1WMCndNdGqVkIJRIU4Q5eE\",\n    \"id\" : \"1WMCndNdGqVkIJRIU4Q5eE\",\n    \"images\" : [ ],\n    \"name\" : \"Mentor Labs API\",\n    \"owner\" : {\n      \"display_name\" : \"MUSTAFA\",\n      \"external_urls\" : {\n        \"spotify\" : \"https:\/\/open.spotify.com\/user\/31hdbhs23eghq3nkv3ves3vn3gve\"\n      },\n      \"href\" : \"https:\/\/api.spotify.com\/v1\/users\/31hdbhs23eghq3nkv3ves3vn3gve\",\n      \"id\" : \"31hdbhs23eghq3nkv3ves3vn3gve\",\n      \"type\" : \"user\",\n      \"uri\" : \"spotify:user:31hdbhs23eghq3nkv3ves3vn3gve\"\n    },\n    \"primary_color\" : null,\n    \"public\" : true,\n    \"snapshot_id\" : \"Miw1YzliZTA0Nzk5NzRjMTdkNmRiZWNmMGY4Yjc5YWUyYzBjODc3NDkz\",\n    \"tracks\" : {\n      \"href\" : \"https:\/\/api.spotify.com\/v1\/playlists\/1WMCndNdGqVkIJRIU4Q5eE\/tracks\",\n      \"total\" : 0\n    },\n    \"type\" : \"playlist\",\n    \"uri\" : \"spotify:playlist:1WMCndNdGqVkIJRIU4Q5eE\"\n  }, {\n    \"collaborative\" : false,\n    \"description\" : \"\",\n    \"external_urls\" : {\n      \"spotify\" : \"https:\/\/open.spotify.com\/playlist\/23OFZt5heZ4Q9onElXABhX\"\n    },\n    \"href\" : \"https:\/\/api.spotify.com\/v1\/playlists\/23OFZt5heZ4Q9onElXABhX\",\n    \"id\" : \"23OFZt5heZ4Q9onElXABhX\",\n    \"images\" : [ ],\n    \"name\" : \"Mentor Labs API\",\n    \"owner\" : {\n      \"display_name\" : \"MUSTAFA\",\n      \"external_urls\" : {\n        \"spotify\" : \"https:\/\/open.spotify.com\/user\/31hdbhs23eghq3nkv3ves3vn3gve\"\n      },\n      \"href\" : \"https:\/\/api.spotify.com\/v1\/users\/31hdbhs23eghq3nkv3ves3vn3gve\",\n      \"id\" : \"31hdbhs23eghq3nkv3ves3vn3gve\",\n      \"type\" : \"user\",\n      \"uri\" : \"spotify:user:31hdbhs23eghq3nkv3ves3vn3gve\"\n    },\n    \"primary_color\" : null,\n    \"public\" : true,\n    \"snapshot_id\" : \"MSw1OGJmN2FkYjA4YmY4NWMxNjM3YzgxZjZmYmFlNjgzYjUzZmZjNTk4\",\n    \"tracks\" : {\n      \"href\" : \"https:\/\/api.spotify.com\/v1\/playlists\/23OFZt5heZ4Q9onElXABhX\/tracks\",\n      \"total\" : 0\n    },\n    \"type\" : \"playlist\",\n    \"uri\" : \"spotify:playlist:23OFZt5heZ4Q9onElXABhX\"\n  }, {\n    \"collaborative\" : false,\n    \"description\" : \"New playlist description\",\n    \"external_urls\" : {\n      \"spotify\" : \"https:\/\/open.spotify.com\/playlist\/6VvLxWD4Y6qc1tMgGBm6w5\"\n    },\n    \"href\" : \"https:\/\/api.spotify.com\/v1\/playlists\/6VvLxWD4Y6qc1tMgGBm6w5\",\n    \"id\" : \"6VvLxWD4Y6qc1tMgGBm6w5\",\n    \"images\" : [ ],\n    \"name\" : \"Mentor Labs API\",\n    \"owner\" : {\n      \"display_name\" : \"MUSTAFA\",\n      \"external_urls\" : {\n        \"spotify\" : \"https:\/\/open.spotify.com\/user\/31hdbhs23eghq3nkv3ves3vn3gve\"\n      },\n      \"href\" : \"https:\/\/api.spotify.com\/v1\/users\/31hdbhs23eghq3nkv3ves3vn3gve\",\n      \"id\" : \"31hdbhs23eghq3nkv3ves3vn3gve\",\n      \"type\" : \"user\",\n      \"uri\" : \"spotify:user:31hdbhs23eghq3nkv3ves3vn3gve\"\n    },\n    \"primary_color\" : null,\n    \"public\" : true,\n    \"snapshot_id\" : \"Miw2MDRhMzNkYjk0ODdjMjgyYWQyN2ZmMWQ2ZTBkOTI5ZmEyMTU0ZDAy\",\n    \"tracks\" : {\n      \"href\" : \"https:\/\/api.spotify.com\/v1\/playlists\/6VvLxWD4Y6qc1tMgGBm6w5\/tracks\",\n      \"total\" : 0\n    },\n    \"type\" : \"playlist\",\n    \"uri\" : \"spotify:playlist:6VvLxWD4Y6qc1tMgGBm6w5\"\n  }, {\n    \"collaborative\" : false,\n    \"description\" : \"\",\n    \"external_urls\" : {\n      \"spotify\" : \"https:\/\/open.spotify.com\/playlist\/1vx1m1jNKY6rHKpTSYA4v5\"\n    },\n    \"href\" : \"https:\/\/api.spotify.com\/v1\/playlists\/1vx1m1jNKY6rHKpTSYA4v5\",\n    \"id\" : \"1vx1m1jNKY6rHKpTSYA4v5\",\n    \"images\" : [ ],\n    \"name\" : \"Mentor Labs API\",\n    \"owner\" : {\n      \"display_name\" : \"MUSTAFA\",\n      \"external_urls\" : {\n        \"spotify\" : \"https:\/\/open.spotify.com\/user\/31hdbhs23eghq3nkv3ves3vn3gve\"\n      },\n      \"href\" : \"https:\/\/api.spotify.com\/v1\/users\/31hdbhs23eghq3nkv3ves3vn3gve\",\n      \"id\" : \"31hdbhs23eghq3nkv3ves3vn3gve\",\n      \"type\" : \"user\",\n      \"uri\" : \"spotify:user:31hdbhs23eghq3nkv3ves3vn3gve\"\n    },\n    \"primary_color\" : null,\n    \"public\" : true,\n    \"snapshot_id\" : \"MSxhODgxMGY5MmEzYmQ3ZTZhYmZhZDhkNmMyYTIwYjNmODIzYWYwZTAx\",\n    \"tracks\" : {\n      \"href\" : \"https:\/\/api.spotify.com\/v1\/playlists\/1vx1m1jNKY6rHKpTSYA4v5\/tracks\",\n      \"total\" : 0\n    },\n    \"type\" : \"playlist\",\n    \"uri\" : \"spotify:playlist:1vx1m1jNKY6rHKpTSYA4v5\"\n  }, {\n    \"collaborative\" : false,\n    \"description\" : \"New playlist description\",\n    \"external_urls\" : {\n      \"spotify\" : \"https:\/\/open.spotify.com\/playlist\/163NrMzTqpVHYOcsjBu5rs\"\n    },\n    \"href\" : \"https:\/\/api.spotify.com\/v1\/playlists\/163NrMzTqpVHYOcsjBu5rs\",\n    \"id\" : \"163NrMzTqpVHYOcsjBu5rs\",\n    \"images\" : [ ],\n    \"name\" : \"Mentor Labs API\",\n    \"owner\" : {\n      \"display_name\" : \"MUSTAFA\",\n      \"external_urls\" : {\n        \"spotify\" : \"https:\/\/open.spotify.com\/user\/31hdbhs23eghq3nkv3ves3vn3gve\"\n      },\n      \"href\" : \"https:\/\/api.spotify.com\/v1\/users\/31hdbhs23eghq3nkv3ves3vn3gve\",\n      \"id\" : \"31hdbhs23eghq3nkv3ves3vn3gve\",\n      \"type\" : \"user\",\n      \"uri\" : \"spotify:user:31hdbhs23eghq3nkv3ves3vn3gve\"\n    },\n    \"primary_color\" : null,\n    \"public\" : true,\n    \"snapshot_id\" : \"MixiODA2ZTIwYjNjYjYzYjg0ZTUwMGY1NGYwYjIwMDA0NDk1ZTA3NmM4\",\n    \"tracks\" : {\n      \"href\" : \"https:\/\/api.spotify.com\/v1\/playlists\/163NrMzTqpVHYOcsjBu5rs\/tracks\",\n      \"total\" : 0\n    },\n    \"type\" : \"playlist\",\n    \"uri\" : \"spotify:playlist:163NrMzTqpVHYOcsjBu5rs\"\n  }, {\n    \"collaborative\" : false,\n    \"description\" : \"New playlist description\",\n    \"external_urls\" : {\n      \"spotify\" : \"https:\/\/open.spotify.com\/playlist\/2Djn76hft5TcyuYh35d4I6\"\n    },\n    \"href\" : \"https:\/\/api.spotify.com\/v1\/playlists\/2Djn76hft5TcyuYh35d4I6\",\n    \"id\" : \"2Djn76hft5TcyuYh35d4I6\",\n    \"images\" : [ ],\n    \"name\" : \"Mentor Labs API\",\n    \"owner\" : {\n      \"display_name\" : \"MUSTAFA\",\n      \"external_urls\" : {\n        \"spotify\" : \"https:\/\/open.spotify.com\/user\/31hdbhs23eghq3nkv3ves3vn3gve\"\n      },\n      \"href\" : \"https:\/\/api.spotify.com\/v1\/users\/31hdbhs23eghq3nkv3ves3vn3gve\",\n      \"id\" : \"31hdbhs23eghq3nkv3ves3vn3gve\",\n      \"type\" : \"user\",\n      \"uri\" : \"spotify:user:31hdbhs23eghq3nkv3ves3vn3gve\"\n    },\n    \"primary_color\" : null,\n    \"public\" : true,\n    \"snapshot_id\" : \"MiwzOGJiYWUzMzllYTJkZjZlMmFkY2ZkMDE1ZmNiNDkyODAzODFkMzM3\",\n    \"tracks\" : {\n      \"href\" : \"https:\/\/api.spotify.com\/v1\/playlists\/2Djn76hft5TcyuYh35d4I6\/tracks\",\n      \"total\" : 0\n    },\n    \"type\" : \"playlist\",\n    \"uri\" : \"spotify:playlist:2Djn76hft5TcyuYh35d4I6\"\n  }, {\n    \"collaborative\" : false,\n    \"description\" : \"New playlist description\",\n    \"external_urls\" : {\n      \"spotify\" : \"https:\/\/open.spotify.com\/playlist\/46zS01jPtGsiW6p0tbjGDJ\"\n    },\n    \"href\" : \"https:\/\/api.spotify.com\/v1\/playlists\/46zS01jPtGsiW6p0tbjGDJ\",\n    \"id\" : \"46zS01jPtGsiW6p0tbjGDJ\",\n    \"images\" : [ ],\n    \"name\" : \"Mentor Labs API\",\n    \"owner\" : {\n      \"display_name\" : \"MUSTAFA\",\n      \"external_urls\" : {\n        \"spotify\" : \"https:\/\/open.spotify.com\/user\/31hdbhs23eghq3nkv3ves3vn3gve\"\n      },\n      \"href\" : \"https:\/\/api.spotify.com\/v1\/users\/31hdbhs23eghq3nkv3ves3vn3gve\",\n      \"id\" : \"31hdbhs23eghq3nkv3ves3vn3gve\",\n      \"type\" : \"user\",\n      \"uri\" : \"spotify:user:31hdbhs23eghq3nkv3ves3vn3gve\"\n    },\n    \"primary_color\" : null,\n    \"public\" : true,\n    \"snapshot_id\" : \"MiwzMzc3ZWQyY2FlNWFhMjMyYWJiZDc4Yzk0YzBkYjY5YTAxYTRhODEy\",\n    \"tracks\" : {\n      \"href\" : \"https:\/\/api.spotify.com\/v1\/playlists\/46zS01jPtGsiW6p0tbjGDJ\/tracks\",\n      \"total\" : 0\n    },\n    \"type\" : \"playlist\",\n    \"uri\" : \"spotify:playlist:46zS01jPtGsiW6p0tbjGDJ\"\n  }, {\n    \"collaborative\" : false,\n    \"description\" : \"\",\n    \"external_urls\" : {\n      \"spotify\" : \"https:\/\/open.spotify.com\/playlist\/4ds5uUtsD4yLhsGifKhgBf\"\n    },\n    \"href\" : \"https:\/\/api.spotify.com\/v1\/playlists\/4ds5uUtsD4yLhsGifKhgBf\",\n    \"id\" : \"4ds5uUtsD4yLhsGifKhgBf\",\n    \"images\" : [ ],\n    \"name\" : \"Mentor Labs API\",\n    \"owner\" : {\n      \"display_name\" : \"MUSTAFA\",\n      \"external_urls\" : {\n        \"spotify\" : \"https:\/\/open.spotify.com\/user\/31hdbhs23eghq3nkv3ves3vn3gve\"\n      },\n      \"href\" : \"https:\/\/api.spotify.com\/v1\/users\/31hdbhs23eghq3nkv3ves3vn3gve\",\n      \"id\" : \"31hdbhs23eghq3nkv3ves3vn3gve\",\n      \"type\" : \"user\",\n      \"uri\" : \"spotify:user:31hdbhs23eghq3nkv3ves3vn3gve\"\n    },\n    \"primary_color\" : null,\n    \"public\" : true,\n    \"snapshot_id\" : \"MSxmYjRmNDg0ZjVlNWFjZmQ3NWY4NWQyM2Y5NGU2MWQ1NWYxYzJjYjhh\",\n    \"tracks\" : {\n      \"href\" : \"https:\/\/api.spotify.com\/v1\/playlists\/4ds5uUtsD4yLhsGifKhgBf\/tracks\",\n      \"total\" : 0\n    },\n    \"type\" : \"playlist\",\n    \"uri\" : \"spotify:playlist:4ds5uUtsD4yLhsGifKhgBf\"\n  }, {\n    \"collaborative\" : false,\n    \"description\" : \"New playlist description\",\n    \"external_urls\" : {\n      \"spotify\" : \"https:\/\/open.spotify.com\/playlist\/3D4H2aKWgAH264pXwtvwmG\"\n    },\n    \"href\" : \"https:\/\/api.spotify.com\/v1\/playlists\/3D4H2aKWgAH264pXwtvwmG\",\n    \"id\" : \"3D4H2aKWgAH264pXwtvwmG\",\n    \"images\" : [ ],\n    \"name\" : \"Mentor Labs API\",\n    \"owner\" : {\n      \"display_name\" : \"MUSTAFA\",\n      \"external_urls\" : {\n        \"spotify\" : \"https:\/\/open.spotify.com\/user\/31hdbhs23eghq3nkv3ves3vn3gve\"\n      },\n      \"href\" : \"https:\/\/api.spotify.com\/v1\/users\/31hdbhs23eghq3nkv3ves3vn3gve\",\n      \"id\" : \"31hdbhs23eghq3nkv3ves3vn3gve\",\n      \"type\" : \"user\",\n      \"uri\" : \"spotify:user:31hdbhs23eghq3nkv3ves3vn3gve\"\n    },\n    \"primary_color\" : null,\n    \"public\" : true,\n    \"snapshot_id\" : \"MixiNWVkODBjZjk0MDMzYWI1YTQzNTgyYjJkMGIzYjcwZGM0OGJlYjJk\",\n    \"tracks\" : {\n      \"href\" : \"https:\/\/api.spotify.com\/v1\/playlists\/3D4H2aKWgAH264pXwtvwmG\/tracks\",\n      \"total\" : 0\n    },\n    \"type\" : \"playlist\",\n    \"uri\" : \"spotify:playlist:3D4H2aKWgAH264pXwtvwmG\"\n  }, {\n    \"collaborative\" : false,\n    \"description\" : \"New playlist description\",\n    \"external_urls\" : {\n      \"spotify\" : \"https:\/\/open.spotify.com\/playlist\/4tSdovLzVHstY0al6DwClx\"\n    },\n    \"href\" : \"https:\/\/api.spotify.com\/v1\/playlists\/4tSdovLzVHstY0al6DwClx\",\n    \"id\" : \"4tSdovLzVHstY0al6DwClx\",\n    \"images\" : [ ],\n    \"name\" : \"Mentor Labs API\",\n    \"owner\" : {\n      \"display_name\" : \"MUSTAFA\",\n      \"external_urls\" : {\n        \"spotify\" : \"https:\/\/open.spotify.com\/user\/31hdbhs23eghq3nkv3ves3vn3gve\"\n      },\n      \"href\" : \"https:\/\/api.spotify.com\/v1\/users\/31hdbhs23eghq3nkv3ves3vn3gve\",\n      \"id\" : \"31hdbhs23eghq3nkv3ves3vn3gve\",\n      \"type\" : \"user\",\n      \"uri\" : \"spotify:user:31hdbhs23eghq3nkv3ves3vn3gve\"\n    },\n    \"primary_color\" : null,\n    \"public\" : true,\n    \"snapshot_id\" : \"MixhNzFjMWQ4YWRhZjAwOWUyYWIyYTRkMGYwYThiZWRhZDFhZmRlY2Mz\",\n    \"tracks\" : {\n      \"href\" : \"https:\/\/api.spotify.com\/v1\/playlists\/4tSdovLzVHstY0al6DwClx\/tracks\",\n      \"total\" : 0\n    },\n    \"type\" : \"playlist\",\n    \"uri\" : \"spotify:playlist:4tSdovLzVHstY0al6DwClx\"\n  }, {\n    \"collaborative\" : false,\n    \"description\" : \"New playlist description\",\n    \"external_urls\" : {\n      \"spotify\" : \"https:\/\/open.spotify.com\/playlist\/7oVTCSBTpF1C6eNItd5887\"\n    },\n    \"href\" : \"https:\/\/api.spotify.com\/v1\/playlists\/7oVTCSBTpF1C6eNItd5887\",\n    \"id\" : \"7oVTCSBTpF1C6eNItd5887\",\n    \"images\" : [ ],\n    \"name\" : \"Mentor Labs API\",\n    \"owner\" : {\n      \"display_name\" : \"MUSTAFA\",\n      \"external_urls\" : {\n        \"spotify\" : \"https:\/\/open.spotify.com\/user\/31hdbhs23eghq3nkv3ves3vn3gve\"\n      },\n      \"href\" : \"https:\/\/api.spotify.com\/v1\/users\/31hdbhs23eghq3nkv3ves3vn3gve\",\n      \"id\" : \"31hdbhs23eghq3nkv3ves3vn3gve\",\n      \"type\" : \"user\",\n      \"uri\" : \"spotify:user:31hdbhs23eghq3nkv3ves3vn3gve\"\n    },\n    \"primary_color\" : null,\n    \"public\" : true,\n    \"snapshot_id\" : \"MiwwNDYyMjQ1NTQ4YzlhYjkyZTNkMGMzNGM5NTZjYjExZGJiZDQxNDA1\",\n    \"tracks\" : {\n      \"href\" : \"https:\/\/api.spotify.com\/v1\/playlists\/7oVTCSBTpF1C6eNItd5887\/tracks\",\n      \"total\" : 0\n    },\n    \"type\" : \"playlist\",\n    \"uri\" : \"spotify:playlist:7oVTCSBTpF1C6eNItd5887\"\n  }, {\n    \"collaborative\" : false,\n    \"description\" : \"New playlist description\",\n    \"external_urls\" : {\n      \"spotify\" : \"https:\/\/open.spotify.com\/playlist\/0UhBgAtOSNz6olwXma4cPA\"\n    },\n    \"href\" : \"https:\/\/api.spotify.com\/v1\/playlists\/0UhBgAtOSNz6olwXma4cPA\",\n    \"id\" : \"0UhBgAtOSNz6olwXma4cPA\",\n    \"images\" : [ ],\n    \"name\" : \"Mentor Labs API\",\n    \"owner\" : {\n      \"display_name\" : \"MUSTAFA\",\n      \"external_urls\" : {\n        \"spotify\" : \"https:\/\/open.spotify.com\/user\/31hdbhs23eghq3nkv3ves3vn3gve\"\n      },\n      \"href\" : \"https:\/\/api.spotify.com\/v1\/users\/31hdbhs23eghq3nkv3ves3vn3gve\",\n      \"id\" : \"31hdbhs23eghq3nkv3ves3vn3gve\",\n      \"type\" : \"user\",\n      \"uri\" : \"spotify:user:31hdbhs23eghq3nkv3ves3vn3gve\"\n    },\n    \"primary_color\" : null,\n    \"public\" : true,\n    \"snapshot_id\" : \"MyxiMWEzMWJmYzI5MTViMTYxYmIwMGM4YzdmM2I4ODhjNTFkNjY4YTc1\",\n    \"tracks\" : {\n      \"href\" : \"https:\/\/api.spotify.com\/v1\/playlists\/0UhBgAtOSNz6olwXma4cPA\/tracks\",\n      \"total\" : 0\n    },\n    \"type\" : \"playlist\",\n    \"uri\" : \"spotify:playlist:0UhBgAtOSNz6olwXma4cPA\"\n  }, {\n    \"collaborative\" : false,\n    \"description\" : \"New playlist description\",\n    \"external_urls\" : {\n      \"spotify\" : \"https:\/\/open.spotify.com\/playlist\/03dt0sn3EJcmaE68EUqDpb\"\n    },\n    \"href\" : \"https:\/\/api.spotify.com\/v1\/playlists\/03dt0sn3EJcmaE68EUqDpb\",\n    \"id\" : \"03dt0sn3EJcmaE68EUqDpb\",\n    \"images\" : [ ],\n    \"name\" : \"Mentor Labs API\",\n    \"owner\" : {\n      \"display_name\" : \"MUSTAFA\",\n      \"external_urls\" : {\n        \"spotify\" : \"https:\/\/open.spotify.com\/user\/31hdbhs23eghq3nkv3ves3vn3gve\"\n      },\n      \"href\" : \"https:\/\/api.spotify.com\/v1\/users\/31hdbhs23eghq3nkv3ves3vn3gve\",\n      \"id\" : \"31hdbhs23eghq3nkv3ves3vn3gve\",\n      \"type\" : \"user\",\n      \"uri\" : \"spotify:user:31hdbhs23eghq3nkv3ves3vn3gve\"\n    },\n    \"primary_color\" : null,\n    \"public\" : true,\n    \"snapshot_id\" : \"MixlYmIxYjc4NDVlNTljY2UyMjJjYjQ1ODM3MWRlN2I4Njc1ZmJhZWM1\",\n    \"tracks\" : {\n      \"href\" : \"https:\/\/api.spotify.com\/v1\/playlists\/03dt0sn3EJcmaE68EUqDpb\/tracks\",\n      \"total\" : 0\n    },\n    \"type\" : \"playlist\",\n    \"uri\" : \"spotify:playlist:03dt0sn3EJcmaE68EUqDpb\"\n  }, {\n    \"collaborative\" : false,\n    \"description\" : \"New playlist description\",\n    \"external_urls\" : {\n      \"spotify\" : \"https:\/\/open.spotify.com\/playlist\/5yfpDkP9S4mkmy86HneHDs\"\n    },\n    \"href\" : \"https:\/\/api.spotify.com\/v1\/playlists\/5yfpDkP9S4mkmy86HneHDs\",\n    \"id\" : \"5yfpDkP9S4mkmy86HneHDs\",\n    \"images\" : [ ],\n    \"name\" : \"Mentor Labs API\",\n    \"owner\" : {\n      \"display_name\" : \"MUSTAFA\",\n      \"external_urls\" : {\n        \"spotify\" : \"https:\/\/open.spotify.com\/user\/31hdbhs23eghq3nkv3ves3vn3gve\"\n      },\n      \"href\" : \"https:\/\/api.spotify.com\/v1\/users\/31hdbhs23eghq3nkv3ves3vn3gve\",\n      \"id\" : \"31hdbhs23eghq3nkv3ves3vn3gve\",\n      \"type\" : \"user\",\n      \"uri\" : \"spotify:user:31hdbhs23eghq3nkv3ves3vn3gve\"\n    },\n    \"primary_color\" : null,\n    \"public\" : true,\n    \"snapshot_id\" : \"Miw4ZmNjNjRmMGI1OTkwNGFmMzZjNzMxY2E0MWViM2JjZTcxNzgyM2E2\",\n    \"tracks\" : {\n      \"href\" : \"https:\/\/api.spotify.com\/v1\/playlists\/5yfpDkP9S4mkmy86HneHDs\/tracks\",\n      \"total\" : 0\n    },\n    \"type\" : \"playlist\",\n    \"uri\" : \"spotify:playlist:5yfpDkP9S4mkmy86HneHDs\"\n  }, {\n    \"collaborative\" : false,\n    \"description\" : \"New playlist description\",\n    \"external_urls\" : {\n      \"spotify\" : \"https:\/\/open.spotify.com\/playlist\/72nNIju0ATz3guDqqvkAyX\"\n    },\n    \"href\" : \"https:\/\/api.spotify.com\/v1\/playlists\/72nNIju0ATz3guDqqvkAyX\",\n    \"id\" : \"72nNIju0ATz3guDqqvkAyX\",\n    \"images\" : [ ],\n    \"name\" : \"Mentor Labs API\",\n    \"owner\" : {\n      \"display_name\" : \"MUSTAFA\",\n      \"external_urls\" : {\n        \"spotify\" : \"https:\/\/open.spotify.com\/user\/31hdbhs23eghq3nkv3ves3vn3gve\"\n      },\n      \"href\" : \"https:\/\/api.spotify.com\/v1\/users\/31hdbhs23eghq3nkv3ves3vn3gve\",\n      \"id\" : \"31hdbhs23eghq3nkv3ves3vn3gve\",\n      \"type\" : \"user\",\n      \"uri\" : \"spotify:user:31hdbhs23eghq3nkv3ves3vn3gve\"\n    },\n    \"primary_color\" : null,\n    \"public\" : true,\n    \"snapshot_id\" : \"MixiMmQ1NWQ3ODMzOTM0NGVhNjczM2Q5YTNiNWVlMWY3Y2JhYzdlYmQ0\",\n    \"tracks\" : {\n      \"href\" : \"https:\/\/api.spotify.com\/v1\/playlists\/72nNIju0ATz3guDqqvkAyX\/tracks\",\n      \"total\" : 0\n    },\n    \"type\" : \"playlist\",\n    \"uri\" : \"spotify:playlist:72nNIju0ATz3guDqqvkAyX\"\n  }, {\n    \"collaborative\" : false,\n    \"description\" : \"New playlist description\",\n    \"external_urls\" : {\n      \"spotify\" : \"https:\/\/open.spotify.com\/playlist\/6rMlL2xhltvVF0AtmjKujD\"\n    },\n    \"href\" : \"https:\/\/api.spotify.com\/v1\/playlists\/6rMlL2xhltvVF0AtmjKujD\",\n    \"id\" : \"6rMlL2xhltvVF0AtmjKujD\",\n    \"images\" : [ ],\n    \"name\" : \"Mentor Labs API\",\n    \"owner\" : {\n      \"display_name\" : \"MUSTAFA\",\n      \"external_urls\" : {\n        \"spotify\" : \"https:\/\/open.spotify.com\/user\/31hdbhs23eghq3nkv3ves3vn3gve\"\n      },\n      \"href\" : \"https:\/\/api.spotify.com\/v1\/users\/31hdbhs23eghq3nkv3ves3vn3gve\",\n      \"id\" : \"31hdbhs23eghq3nkv3ves3vn3gve\",\n      \"type\" : \"user\",\n      \"uri\" : \"spotify:user:31hdbhs23eghq3nkv3ves3vn3gve\"\n    },\n    \"primary_color\" : null,\n    \"public\" : true,\n    \"snapshot_id\" : \"Miw4NWEwMjE5YzQyNWVmNDZjM2FhODgxYzY3MjIwYzFhM2UyNDE2MWEx\",\n    \"tracks\" : {\n      \"href\" : \"https:\/\/api.spotify.com\/v1\/playlists\/6rMlL2xhltvVF0AtmjKujD\/tracks\",\n      \"total\" : 0\n    },\n    \"type\" : \"playlist\",\n    \"uri\" : \"spotify:playlist:6rMlL2xhltvVF0AtmjKujD\"\n  }, {\n    \"collaborative\" : false,\n    \"description\" : \"New playlist description\",\n    \"external_urls\" : {\n      \"spotify\" : \"https:\/\/open.spotify.com\/playlist\/03lHlBN16S5uxU5DUGIlGr\"\n    },\n    \"href\" : \"https:\/\/api.spotify.com\/v1\/playlists\/03lHlBN16S5uxU5DUGIlGr\",\n    \"id\" : \"03lHlBN16S5uxU5DUGIlGr\",\n    \"images\" : [ ],\n    \"name\" : \"Mentor Labs API\",\n    \"owner\" : {\n      \"display_name\" : \"MUSTAFA\",\n      \"external_urls\" : {\n        \"spotify\" : \"https:\/\/open.spotify.com\/user\/31hdbhs23eghq3nkv3ves3vn3gve\"\n      },\n      \"href\" : \"https:\/\/api.spotify.com\/v1\/users\/31hdbhs23eghq3nkv3ves3vn3gve\",\n      \"id\" : \"31hdbhs23eghq3nkv3ves3vn3gve\",\n      \"type\" : \"user\",\n      \"uri\" : \"spotify:user:31hdbhs23eghq3nkv3ves3vn3gve\"\n    },\n    \"primary_color\" : null,\n    \"public\" : true,\n    \"snapshot_id\" : \"MixiMzQ0NmY1OTZlMmZlZjAyYTllZjViMWNhOTE2NDczNjgxYjAxMGQ5\",\n    \"tracks\" : {\n      \"href\" : \"https:\/\/api.spotify.com\/v1\/playlists\/03lHlBN16S5uxU5DUGIlGr\/tracks\",\n      \"total\" : 0\n    },\n    \"type\" : \"playlist\",\n    \"uri\" : \"spotify:playlist:03lHlBN16S5uxU5DUGIlGr\"\n  } ],\n  \"limit\" : 20,\n  \"next\" : \"https:\/\/api.spotify.com\/v1\/users\/31hdbhs23eghq3nkv3ves3vn3gve\/playlists?offset=20&limit=20\",\n  \"offset\" : 0,\n  \"previous\" : null,\n  \"total\" : 36\n}\n\n"},{"result":{"nanos":13580000,"millis":13.58,"status":"passed"},"step":{"line":12,"prefix":"And","index":4,"text":"def listId = response.items.id"}},{"result":{"nanos":657900,"millis":0.6579,"status":"passed"},"step":{"line":13,"prefix":"And","index":5,"text":"def listName = response.items.name"}},{"result":{"nanos":1960200,"millis":1.9602,"status":"passed"},"step":{"line":14,"prefix":"Then","index":6,"text":"status 200"}},{"result":{"nanos":22279200,"millis":22.2792,"status":"passed"},"step":{"line":15,"prefix":"*","index":7,"text":"print listId"},"stepLog":"14:43:55.287 [print] null \n"},{"result":{"nanos":276900,"millis":0.2769,"status":"passed"},"step":{"line":16,"prefix":"*","index":8,"text":"print listId"},"stepLog":"14:43:55.288 [print] null \n"},{"result":{"nanos":155100,"millis":0.1551,"status":"passed"},"step":{"line":17,"prefix":"*","index":9,"text":"print listId"},"stepLog":"14:43:55.288 [print] null \n"},{"result":{"nanos":141500,"millis":0.1415,"status":"passed"},"step":{"line":18,"prefix":"*","index":10,"text":"print listId"},"stepLog":"14:43:55.289 [print] null \n"},{"result":{"nanos":144900,"millis":0.1449,"status":"passed"},"step":{"line":19,"prefix":"*","index":11,"text":"print listId"},"stepLog":"14:43:55.289 [print] null \n"},{"result":{"nanos":140400,"millis":0.1404,"status":"passed"},"step":{"line":20,"prefix":"*","index":12,"text":"print listId"},"stepLog":"14:43:55.289 [print] null \n"},{"result":{"nanos":115200,"millis":0.1152,"status":"passed"},"step":{"line":21,"prefix":"*","index":13,"text":"print listId"},"stepLog":"14:43:55.289 [print] null \n"},{"result":{"nanos":535000,"millis":0.535,"status":"passed"},"step":{"line":22,"prefix":"*","index":14,"text":"print listName"},"stepLog":"14:43:55.290 [print] null \n"}],"line":6,"description":"","durationMillis":630.6045,"failed":false,"tags":["UcuncuSenaryo"],"executorName":"main","name":"PlayList Listele ve Id al","startTime":1655207034651,"refId":"[1:6]","endTime":1655207035290,"exampleIndex":-1}],"callDepth":0,"name":"Idi Bul","description":"","resultDate":"2022-06-14 02:43:55 ÖS","durationMillis":630.6045,"passedCount":1}